
 
 2018-06-21 16:10:44.2430 ERROR 
Algo salio mal con acción LoginByIdentificacion: Incorrect number of arguments for PROCEDURE multiservice.sps_UsuarioLogin; expected 3, got 2
 MySql.Data.MySqlClient.MySqlException (0x80004005): Incorrect number of arguments for PROCEDURE multiservice.sps_UsuarioLogin; expected 3, got 2
   at MySqlConnector.Core.ResultSet.ReadResultSetHeaderAsync(IOBehavior ioBehavior) in C:\projects\mysqlconnector\src\MySqlConnector\Core\ResultSet.cs:line 43

 
 2018-06-21 16:13:01.3664 ERROR 
Algo salio mal con acción LoginByIdentificacion: Incorrect number of arguments for PROCEDURE multiservice.sps_UsuarioLogin; expected 3, got 2
 MySql.Data.MySqlClient.MySqlException (0x80004005): Incorrect number of arguments for PROCEDURE multiservice.sps_UsuarioLogin; expected 3, got 2
   at MySqlConnector.Core.ResultSet.ReadResultSetHeaderAsync(IOBehavior ioBehavior) in C:\projects\mysqlconnector\src\MySqlConnector\Core\ResultSet.cs:line 43

 
 2018-06-21 16:13:43.0191 ERROR 
Algo salio mal con acción LoginByIdentificacion: The required column 'CIdPersona' was not present in the results of a 'FromSql' operation.
 

 
 2018-06-21 16:25:33.1043 INFO Retornada persona y detalles con id: 0913238713
